WID,SHORT_NAME,LONG_NAME,DOMICILE_COUNTRY,CLIENT_TRADING_ADDRESS,CLIENT_REGISTERED_ADDRESS,CLIENT_POSTAL_ADDRESS,CONTACT_JOB_TITLE,CONTACT_JOB_FUNCTION,CONTACT_FIRST_NAME,CONTACT_MIDDLE_NAME,CONTACT_LAST_NAME,Product,CONTACT_ADDRESS,CONTACT_PHONE,CONTACT_FAX,SECONDARY_FAX,CONTACT_LOTUS_NOTES,CONTACT_EMAIL
7173911,KEMEL EUROPE LTD-NUT,Kemel Europe Limited,United Kingdom,"Unit 9, Tower Road Glover Industrial Estate Washinton Tyne and Wear NUT   NE37 2SH GB",,, , ,Cheryl, ,Fenwick-Brown,,"Unit 9, Tower Road Glover Industrial Estate Washinton     NE37 2SH GB",+44 191 4160232,,,,c.fenwick-brown@kemeleurope.com
7396518,JCKSON WOODTRNRS-SFF,Jackson Woodturners Limited,United Kingdom,Rutland Road Corner Of Rutland Street SFF  S3 9PT GB,,,,,Luke,,Jackson,,Rutland Road Corner Of Rutland Street SFF  S3 9PT GB,+44 114 2721228,,,,luke@jacksonwoodturners.co.uk
7808012,G H CHENNELLS-GLA,G.H. Chennells (Farms) Limited,United Kingdom,Clay Farm North Scarle LIC  LN6 9ES GB,,,,,Michael,,Chennells,COMMODITIES,Clay Farm North Scarle LIC  LN6 9ES GB,+44 7 889123067,,,,michael@chennellsfarms.co.uk
7808012,G H CHENNELLS-GLA,G.H. Chennells (Farms) Limited,United Kingdom,Clay Farm North Scarle LIC  LN6 9ES GB,,,,,G20_TRADE_REP_SUMMARY_REPORT,,.,,Clay Farm North Scarle LIC  LN6 9ES GB,,,,,patrick.finch@btconnect.com